ONT    C    C    TNO
 C    C  NN  C    C 
N    C   NN   C    N
    C   C  C   C    
NT      P  P      TN
NT      P  P      TN
    C   C  C        
N    C   NN        N
 C    C  NN       C 
ONT    C         TNO
3x10x60x3x5x1