      C   N  C      
   O  C   T  C      
     NTT  C NTN     
    N   N NC   N    
   T O  PNNP  O T   
TCCC N  NNCT  N PTCN
   N   N C  N   T   
    NNN  N   CNN    
     C O T    C     
     C   N    C     