ONT    C    C    TNO
 C    C  NN  C    C 
N        NN        N
        C  C        
NT      P  P      TN
NT      P  P      TN
        C  C        
N        NN        N
 C    C  NN  C    C 
ONT    C    C    TNO