O   NN     N    NNNC
N N N  NNN   NN  NNP
N N   N  NPNPNN NNN 
  N NCCNCNCNN      N
 N PCPPNNO NN NNNN N
   CCO NN   N N    N
N NN PCN NN NNN NN N
C N NCP NNN N   N  N
 NNNCPCT  C   NNN NN
C  CCTOTPNNNNCNPN  S